{"current_page":1,"data":[{"id_pelanggan":1,"nama_pelanggan":"Pelanggan 1","no_telepon":"086713687520","email":"pelanggan1@example.com","alamat":"Jl. Melati No. 181, Pekanbaru"},{"id_pelanggan":10,"nama_pelanggan":"Pelanggan 10","no_telepon":"088308343971","email":"pelanggan10@example.com","alamat":"Jl. Melati No. 114, Pekanbaru"},{"id_pelanggan":11,"nama_pelanggan":"Pelanggan 11","no_telepon":"088580605979","email":"pelanggan11@example.com","alamat":"Jl. Melati No. 169, Pekanbaru"},{"id_pelanggan":12,"nama_pelanggan":"Pelanggan 12","no_telepon":"088557084866","email":"pelanggan12@example.com","alamat":"Jl. Melati No. 104, Pekanbaru"},{"id_pelanggan":13,"nama_pelanggan":"Pelanggan 13","no_telepon":"083986732341","email":"pelanggan13@example.com","alamat":"Jl. Melati No. 9, Pekanbaru"},{"id_pelanggan":14,"nama_pelanggan":"Pelanggan 14","no_telepon":"087773815301","email":"pelanggan14@example.com","alamat":"Jl. Melati No. 86, Pekanbaru"},{"id_pelanggan":15,"nama_pelanggan":"Pelanggan 15","no_telepon":"087384261938","email":"pelanggan15@example.com","alamat":"Jl. Melati No. 182, Pekanbaru"},{"id_pelanggan":16,"nama_pelanggan":"Pelanggan 16","no_telepon":"086472059064","email":"pelanggan16@example.com","alamat":"Jl. Melati No. 90, Pekanbaru"},{"id_pelanggan":17,"nama_pelanggan":"Pelanggan 17","no_telepon":"082871619316","email":"pelanggan17@example.com","alamat":"Jl. Melati No. 152, Pekanbaru"},{"id_pelanggan":18,"nama_pelanggan":"Pelanggan 18","no_telepon":"086908160707","email":"pelanggan18@example.com","alamat":"Jl. Melati No. 159, Pekanbaru"},{"id_pelanggan":19,"nama_pelanggan":"Pelanggan 19","no_telepon":"084496904117","email":"pelanggan19@example.com","alamat":"Jl. Melati No. 171, Pekanbaru"},{"id_pelanggan":2,"nama_pelanggan":"Pelanggan 2","no_telepon":"082704016841","email":"pelanggan2@example.com","alamat":"Jl. Melati No. 159, Pekanbaru"},{"id_pelanggan":20,"nama_pelanggan":"Pelanggan 20","no_telepon":"084897798595","email":"pelanggan20@example.com","alamat":"Jl. Melati No. 105, Pekanbaru"},{"id_pelanggan":21,"nama_pelanggan":"Pelanggan 21","no_telepon":"081790763461","email":"pelanggan21@example.com","alamat":"Jl. Melati No. 132, Pekanbaru"},{"id_pelanggan":22,"nama_pelanggan":"Pelanggan 22","no_telepon":"087162900212","email":"pelanggan22@example.com","alamat":"Jl. Melati No. 133, Pekanbaru"}],"first_page_url":"http:\/\/127.0.0.1:8000\/api\/pelanggan\/search?page=1","from":1,"last_page":2,"last_page_url":"http:\/\/127.0.0.1:8000\/api\/pelanggan\/search?page=2","links":[{"url":null,"label":"&laquo; Previous","page":null,"active":false},{"url":"http:\/\/127.0.0.1:8000\/api\/pelanggan\/search?page=1","label":"1","page":1,"active":true},{"url":"http:\/\/127.0.0.1:8000\/api\/pelanggan\/search?page=2","label":"2","page":2,"active":false},{"url":"http:\/\/127.0.0.1:8000\/api\/pelanggan\/search?page=2","label":"Next &raquo;","page":2,"active":false}],"next_page_url":"http:\/\/127.0.0.1:8000\/api\/pelanggan\/search?page=2","path":"http:\/\/127.0.0.1:8000\/api\/pelanggan\/search","per_page":15,"prev_page_url":null,"to":15,"total":30}